{
    "ip_servidor_central": "192.168.1.134",
    "porta_servidor_central": 10000,
    "ip_servidor_distribuido": "127.0.0.52",
    "porta_servidor_distribuido": 10200,
    "nome": "Sala 01",
    "outputs": [
        {
            "type": "lampada",
            "tag": "Lâmpada 01",
            "gpio": 26
        },
        {
            "type": "lampada",
            "tag": "Lâmpada 02",
            "gpio": 19
        },
        {
            "type": "projetor",
            "tag": "Projetor Multimidia",
            "gpio": 6
        },
        {
            "type": "ar-condicionado",
            "tag": "Ar-Condicionado (1º Andar)",
            "gpio": 13
        },
        {
            "type": "alarme",
            "tag": "Sirene do Alarme",
            "gpio": 5
        }
    ],
    "inputs": [
        {
          "type": "presenca",
          "tag": "Sensor de Presença",
          "gpio": 0
        },
        {
            "type": "fumaca",
            "tag": "Sensor de Fumaça",
            "gpio": 11
        },
        {
            "type": "janela",
            "tag": "Sensor de Janela",
            "gpio": 9
        },
        {
            "type": "porta",
            "tag": "Sensor de Porta",
            "gpio": 10
        },
        {
            "type": "contagem",
            "tag": "Sensor de Contagem de Pessoas Entrada",
            "gpio": 22
        },
        {
            "type": "contagem",
            "tag": "Sensor de Contagem de Pessoas Saída",
            "gpio": 27
        }
    ],
    "sensor_temperatura":[
        {
          "type": "dth22",
          "tag": "Sensor de Temperatura e Umidade",
          "gpio": 18
        }
    ]
}
